Ruby’s Lab Notebook - Summer 2023 - June 13 & 14
…
#read the file that has the season and year associated with each cruise
cruises <- read.csv("~/Downloads/lab_notebook/data/22564_SVDBS_CRUISES.csv")

#select the relevant variables
cruises <- cruises %>% 
  select(c("CRUISE6","SEASON","YEAR")) %>% 
  mutate(cruise6 = as.factor(CRUISE6), .keep="unused")

#combine with the existing dataframe
scallops <- left_join(scallops, cruises, by="cruise6")

as_tibble(scallops)

# A tibble: 21,425 × 12
     TOW STATION ID         EXPCA…¹ EXPCA…² CATCH…³ name  cruise6 cruise stratum
   <int>   <int> <chr>        <int>   <dbl> <chr>   <chr> <fct>   <fct>  <fct>  
 1     1       1 197703063…       4     0.3 " "     scal… 197703  177    06370  
 2     2       2 197703063…       3     0.1 " "     scal… 197703  177    06370  
 3     3       3 197703063…       2     0.3 " "     scal… 197703  177    06370  
 4     1       4 197703063…       4     0.9 " "     scal… 197703  177    06380  
 5     4       5 197703063…      12     1.7 " "     scal… 197703  177    06370  
 6     5       6 197703063…      22     4.6 " "     scal… 197703  177    06370  
 7     1       8 197703064…       1     0.1 " "     scal… 197703  177    06420  
 8     1      13 197703065…       2     0.3 " "     scal… 197703  177    06500  
 9     2      14 197703065…       7     0   " "     clap… 197703  177    06500  
10     2      14 197703065…    1897   154.  " "     scal… 197703  177    06500  
# … with 21,415 more rows, 2 more variables: SEASON <chr>, YEAR <int>, and
#   abbreviated variable names ¹​EXPCATCHNUM, ²​EXPCATCHWT, ³​CATCH_COMMENT
…
