Ruby’s Lab Notebook - Summer 2023 - Week 2 in R
…
#read the file that has the season and year associated with each cruise
cruises <- read.csv("~/Downloads/lab_notebook/data/Old/22564_SVDBS_CRUISES.csv")

#select the relevant variables
cruises <- cruises %>% 
  select(c("CRUISE6","SEASON","YEAR")) %>% 
  mutate(CRUISE6 = as.factor(CRUISE6), .keep="unused")

#combine with the existing dataframe
scallops <- left_join(scallops, cruises, by="CRUISE6")

as_tibble(scallops)

# A tibble: 21,425 × 12
   CRUISE6 CRUISE STRATUM   TOW STATION ID         EXPCA…¹ EXPCA…² CATCH…³ name 
   <fct>   <fct>  <fct>   <int>   <int> <chr>        <int>   <dbl> <chr>   <chr>
 1 197703  177    06370       1       1 197703063…       4     0.3 " "     scal…
 2 197703  177    06370       2       2 197703063…       3     0.1 " "     scal…
 3 197703  177    06370       3       3 197703063…       2     0.3 " "     scal…
 4 197703  177    06380       1       4 197703063…       4     0.9 " "     scal…
 5 197703  177    06370       4       5 197703063…      12     1.7 " "     scal…
 6 197703  177    06370       5       6 197703063…      22     4.6 " "     scal…
 7 197703  177    06420       1       8 197703064…       1     0.1 " "     scal…
 8 197703  177    06500       1      13 197703065…       2     0.3 " "     scal…
 9 197703  177    06500       2      14 197703065…       7     0   " "     clap…
10 197703  177    06500       2      14 197703065…    1897   154.  " "     scal…
# … with 21,415 more rows, 2 more variables: SEASON <chr>, YEAR <int>, and
#   abbreviated variable names ¹​EXPCATCHNUM, ²​EXPCATCHWT, ³​CATCH_COMMENT
…
#read the file that has the season and year associated with each cruise
cruisesNew <- read.csv("~/Downloads/lab_notebook/data/new22564_SVDBS_CRUISES.csv")

#select the relevant variables
cruisesNew <- cruisesNew %>% 
  select(c("CRUISE6","SEASON","YEAR")) %>% 
  mutate(CRUISE6 = as.factor(CRUISE6), .keep="unused")

#combine with the existing dataframe
scallopsNew <- left_join(scallopsNew, cruisesNew, by="CRUISE6")

as_tibble(scallopsNew)

# A tibble: 21,581 × 12
   CRUISE6 CRUISE STRATUM   TOW STATION ID         EXPCA…¹ EXPCA…² CATCH…³ name 
   <fct>   <fct>  <chr>   <int>   <int> <chr>        <int>   <dbl> <chr>   <chr>
 1 197703  177    06370       1       1 197703063…       4     0.3 ""      scal…
 2 197703  177    06370       2       2 197703063…       3     0.1 ""      scal…
 3 197703  177    06370       3       3 197703063…       2     0.3 ""      scal…
 4 197703  177    06380       1       4 197703063…       4     0.9 ""      scal…
 5 197703  177    06370       4       5 197703063…      12     1.7 ""      scal…
 6 197703  177    06370       5       6 197703063…      22     4.6 ""      scal…
 7 197703  177    06420       1       8 197703064…       1     0.1 ""      scal…
 8 197703  177    06500       1      13 197703065…       2     0.3 ""      scal…
 9 197703  177    06500       2      14 197703065…       7     0   ""      clap…
10 197703  177    06500       2      14 197703065…    1897   154.  ""      scal…
# … with 21,571 more rows, 2 more variables: SEASON <chr>, YEAR <int>, and
#   abbreviated variable names ¹​EXPCATCHNUM, ²​EXPCATCHWT, ³​CATCH_COMMENT
…
