Ruby’s Lab Notebook - Summer 2023 - Exploring
…
summarise_all(scallopCat,n_distinct)

  CRUISE6 CRUISE STRATUM TOW STATION    ID EXPCATCHNUM EXPCATCHWT CATCH_COMMENT
1      47     49      81 138     628 15433        2035       4923           202
  NAME SEASON YEAR
1    1      3   45

as_tibble(scallopCat)

# A tibble: 15,433 × 12
   CRUISE6 CRUISE STRATUM   TOW STATION ID         EXPCA…¹ EXPCA…² CATCH…³ NAME 
   <fct>   <fct>  <chr>   <int>   <dbl> <chr>        <int>   <dbl> <chr>   <chr>
 1 197703  177    06370       1       1 197703063…       4     0.3 ""      scal…
 2 197703  177    06370       2       2 197703063…       3     0.1 ""      scal…
 3 197703  177    06370       3       3 197703063…       2     0.3 ""      scal…
 4 197703  177    06380       1       4 197703063…       4     0.9 ""      scal…
 5 197703  177    06370       4       5 197703063…      12     1.7 ""      scal…
 6 197703  177    06370       5       6 197703063…      22     4.6 ""      scal…
 7 197703  177    06420       1       8 197703064…       1     0.1 ""      scal…
 8 197703  177    06500       1      13 197703065…       2     0.3 ""      scal…
 9 197703  177    06500       2      14 197703065…    1897   154.  ""      scal…
10 197703  177    06520       1      15 197703065…      22     5   ""      scal…
# … with 15,423 more rows, 2 more variables: SEASON <chr>, YEAR <int>, and
#   abbreviated variable names ¹​EXPCATCHNUM, ²​EXPCATCHWT, ³​CATCH_COMMENT
…
